if (evenement.key.code == jump){
                theFighter.fighter.move(0, theFighter.pasSaut);
                if(theFighter.pasSaut<VITESSE_SAUT_MAX)
                    theFighter.pasSaut += GRAVITY;
        }




    if(theFighter.fighter.getPosition().y >= sol.getPosition().y)
        theFighter.pasSaut = SAUT_MAX;
    if(theFighter.fighter.getPosition().y < sol.getPosition().y)
       {
           theFighter.fighter.move(0, theFighter.pasSaut);
            if(theFighter.pasSaut<VITESSE_SAUT_MAX)
                theFighter.pasSaut += GRAVITY;
       }