Dash 2
offset X 0
offset y 720
size X 58
size Y 49

Spéciale bas 4
offset X 0
offset y 648
size X 87
size Y 72

coup de poing droit 5
offset X 0
offset y 591
size X 67
size Y 57

coup de poing gauche 4
offset X 0
offset y 530
size X 61
size Y 61

Péciale haut 3
offset X 0
offset y 428
size X 105
size Y 102

Spéciale 3
offset X 0
offset y 356
size X 106
size Y 72

Se prend des coups 2
offset X 0
offset y 298
size X 46
size Y 58

Tombe par terre 7
offset X 0
offset y 242
size X 71
size Y 56

Courire 8
offset X 0
offset y 181
size X 52
size Y 55

Garde 4
offset X 0
offset y 120
size X 59
size Y 61

Jump 8
offset X 0
offset y 59
size X 48
size Y 61

Idle 4
offset X 0
offset y 0
size X 33
size Y 59